module gitlab.com/accumulatenetwork/accumulate

go 1.18

replace github.com/tendermint/tendermint v0.37.0-rc1 => github.com/AccumulateNetwork/tendermint v0.34.15-0.20221019224404-7f7149107231

replace github.com/tyler-smith/go-bip32 v1.0.0 => github.com/AccumulateNetwork/go-bip32 v1.0.0-ed25519

require (
	github.com/AccumulateNetwork/jsonrpc2/v15 v15.0.0-20220517212445-953ad957e040
	github.com/FactomProject/factom v0.4.0
	github.com/btcsuite/btcutil v1.0.3-0.20201208143702-a53e38424cce
	github.com/davecgh/go-spew v1.1.2-0.20180830191138-d8f796af33cc
	github.com/dgraph-io/badger v1.6.2
	github.com/docker/cli v20.10.17+incompatible
	github.com/dustin/go-humanize v1.0.0
	github.com/fatih/color v1.13.0
	github.com/go-playground/validator/v10 v10.9.0
	github.com/golang/mock v1.6.0
	github.com/golangci/golangci-lint v1.49.0
	github.com/kardianos/service v1.2.0
	github.com/pelletier/go-toml v1.9.5
	github.com/prometheus/client_golang v1.14.0
	github.com/prometheus/common v0.37.0
	github.com/rinchsan/gosimports v0.1.5
	github.com/rs/zerolog v1.27.0
	github.com/spf13/cobra v1.5.0
	github.com/spf13/pflag v1.0.5
	github.com/spf13/viper v1.13.0
	github.com/stretchr/testify v1.8.1
	github.com/tendermint/tendermint v0.37.0-rc1
	gitlab.com/ethan.reesor/vscode-notebooks/go-playbooks v0.0.0-20220417214602-1121b9fae118
	gitlab.com/ethan.reesor/vscode-notebooks/yaegi v0.0.0-20220417214422-5c573557938e
	go.etcd.io/etcd/client/v3 v3.5.4
	golang.org/x/exp v0.0.0-20221205204356-47842c84f3db
	golang.org/x/sync v0.1.0
	golang.org/x/sys v0.3.0
	golang.org/x/term v0.3.0
	golang.org/x/text v0.5.0
	golang.org/x/tools v0.3.0
	gopkg.in/yaml.v3 v3.0.1
	gotest.tools/gotestsum v1.8.1
)

require (
	github.com/FactomProject/factomd v1.13.0
	github.com/chzyer/readline v1.5.1
	github.com/ethereum/go-ethereum v1.10.25
	github.com/ghodss/yaml v1.0.0
	github.com/libp2p/go-libp2p v0.24.0
	github.com/libp2p/go-libp2p-pubsub v0.8.2
	github.com/mattn/go-shellwords v1.0.12
	github.com/mr-tron/base58 v1.2.0
	github.com/multiformats/go-multiaddr v0.8.0
	github.com/multiformats/go-multibase v0.1.1
	github.com/multiformats/go-multihash v0.2.1
	github.com/robfig/cron/v3 v3.0.0
	github.com/vektra/mockery/v2 v2.14.0
	gitlab.com/accumulatenetwork/core/wallet v0.3.3-0.20221103154856-2467ab689b1b
	go.opentelemetry.io/otel v1.10.0
	go.opentelemetry.io/otel/exporters/stdout/stdouttrace v1.10.0
	go.opentelemetry.io/otel/sdk v1.10.0
	go.opentelemetry.io/otel/trace v1.10.0
)

require (
	github.com/FactomProject/btcutil v0.0.0-20200312214114-5fd3eaf71bd2 // indirect
	github.com/FactomProject/ed25519 v0.0.0-20150814230546-38002c4fe7b6 // indirect
	github.com/FactomProject/go-bip32 v0.3.6-0.20161206200006-3b593af1c415 // indirect
	github.com/FactomProject/go-bip39 v0.3.6-0.20161217174232-d1007fb78d9a // indirect
	github.com/FactomProject/go-bip44 v0.0.0-20190306062959-b541a96d8da9 // indirect
	github.com/FactomProject/go-simplejson v0.5.0 // indirect
	github.com/FactomProject/goleveldb v0.2.2-0.20170418171130-e7800c6976c5 // indirect
	github.com/FactomProject/netki-go-partner-client v0.0.0-20160324224126-426acb535e66 // indirect
	github.com/GaijinEntertainment/go-exhaustruct/v2 v2.3.0 // indirect
	github.com/alingse/asasalint v0.0.11 // indirect
	github.com/benbjohnson/clock v1.3.0 // indirect
	github.com/boltdb/bolt v1.3.1 // indirect
	github.com/btcsuite/btcd/btcec/v2 v2.2.0 // indirect
	github.com/btcsuitereleases/btcutil v0.0.0-20150612230727-f2b1058a8255 // indirect
	github.com/containerd/cgroups v1.0.4 // indirect
	github.com/cosmos/gogoproto v1.4.1 // indirect
	github.com/creachadair/taskgroup v0.3.2 // indirect
	github.com/curioswitch/go-reassign v0.1.2 // indirect
	github.com/davidlazar/go-crypto v0.0.0-20200604182044-b73af7476f6c // indirect
	github.com/decred/dcrd/dcrec/secp256k1/v4 v4.1.0 // indirect
	github.com/docker/go-units v0.5.0 // indirect
	github.com/elastic/gosigar v0.14.2 // indirect
	github.com/facebookgo/ensure v0.0.0-20200202191622-63f1cf65ac4c // indirect
	github.com/facebookgo/stack v0.0.0-20160209184415-751773369052 // indirect
	github.com/facebookgo/subset v0.0.0-20200203212716-c811ad88dec4 // indirect
	github.com/firefart/nonamedreturns v1.0.4 // indirect
	github.com/flynn/noise v1.0.0 // indirect
	github.com/francoispqt/gojay v1.2.13 // indirect
	github.com/go-kit/log v0.2.1 // indirect
	github.com/go-logfmt/logfmt v0.5.1 // indirect
	github.com/go-logr/logr v1.2.3 // indirect
	github.com/go-logr/stdr v1.2.2 // indirect
	github.com/go-task/slim-sprig v0.0.0-20210107165309-348f09dbbbc0 // indirect
	github.com/godbus/dbus/v5 v5.1.0 // indirect
	github.com/google/gopacket v1.1.19 // indirect
	github.com/google/pprof v0.0.0-20221203041831-ce31453925ec // indirect
	github.com/gtank/merlin v0.1.1 // indirect
	github.com/hashicorp/golang-lru v0.5.5-0.20210104140557-80c98217689d // indirect
	github.com/howeyc/gopass v0.0.0-20210920133722-c8aef6fb66ef // indirect
	github.com/huin/goupnp v1.0.3 // indirect
	github.com/ipfs/go-cid v0.3.2 // indirect
	github.com/ipfs/go-log v1.0.5 // indirect
	github.com/ipfs/go-log/v2 v2.5.1 // indirect
	github.com/jackpal/go-nat-pmp v1.0.2 // indirect
	github.com/jbenet/go-temp-err-catcher v0.1.0 // indirect
	github.com/karalabe/usb v0.0.2 // indirect
	github.com/klauspost/compress v1.15.12 // indirect
	github.com/klauspost/cpuid/v2 v2.2.1 // indirect
	github.com/koron/go-ssdp v0.0.3 // indirect
	github.com/libp2p/go-cidranger v1.1.0 // indirect
	github.com/libp2p/go-flow-metrics v0.1.0 // indirect
	github.com/libp2p/go-libp2p-asn-util v0.2.0 // indirect
	github.com/libp2p/go-msgio v0.2.0 // indirect
	github.com/libp2p/go-nat v0.1.0 // indirect
	github.com/libp2p/go-netroute v0.2.1 // indirect
	github.com/libp2p/go-openssl v0.1.0 // indirect
	github.com/libp2p/go-reuseport v0.2.0 // indirect
	github.com/libp2p/go-yamux/v4 v4.0.0 // indirect
	github.com/lucas-clemente/quic-go v0.31.0 // indirect
	github.com/lufeee/execinquery v1.2.1 // indirect
	github.com/manifoldco/promptui v0.9.0 // indirect
	github.com/marten-seemann/qtls-go1-18 v0.1.3 // indirect
	github.com/marten-seemann/qtls-go1-19 v0.1.1 // indirect
	github.com/marten-seemann/tcp v0.0.0-20210406111302-dfbc87cc63fd // indirect
	github.com/mattn/go-pointer v0.0.1 // indirect
	github.com/mdp/qrterminal v1.0.1 // indirect
	github.com/miekg/dns v1.1.50 // indirect
	github.com/mikioh/tcpinfo v0.0.0-20190314235526-30a79bb1804b // indirect
	github.com/mikioh/tcpopt v0.0.0-20190314235656-172688c1accc // indirect
	github.com/mimoo/StrobeGo v0.0.0-20210601165009-122bf33a46e0 // indirect
	github.com/minio/sha256-simd v1.0.0 // indirect
	github.com/multiformats/go-base32 v0.1.0 // indirect
	github.com/multiformats/go-base36 v0.2.0 // indirect
	github.com/multiformats/go-multiaddr-dns v0.3.1 // indirect
	github.com/multiformats/go-multiaddr-fmt v0.1.0 // indirect
	github.com/multiformats/go-multicodec v0.7.0 // indirect
	github.com/multiformats/go-multistream v0.3.3 // indirect
	github.com/multiformats/go-varint v0.0.7 // indirect
	github.com/onsi/ginkgo/v2 v2.5.1 // indirect
	github.com/opencontainers/runtime-spec v1.0.2 // indirect
	github.com/opentracing/opentracing-go v1.2.0 // indirect
	github.com/pbnjay/memory v0.0.0-20210728143218-7b4eea64cf58 // indirect
	github.com/pelletier/go-toml/v2 v2.0.5 // indirect
	github.com/quasilyte/stdinfo v0.0.0-20220114132959-f7386bf02567 // indirect
	github.com/raulk/go-watchdog v1.3.0 // indirect
	github.com/sashamelentyev/interfacebloat v1.1.0 // indirect
	github.com/sashamelentyev/usestdlibvars v1.13.0 // indirect
	github.com/sivchari/nosnakecase v1.7.0 // indirect
	github.com/spacemonkeygo/spacelog v0.0.0-20180420211403-2296661a0572 // indirect
	github.com/spaolacci/murmur3 v1.1.0 // indirect
	github.com/stbenjam/no-sprintf-host-port v0.1.1 // indirect
	github.com/timonwong/logrlint v0.1.0 // indirect
	github.com/tyler-smith/go-bip32 v1.0.0 // indirect
	github.com/tyler-smith/go-bip39 v1.1.0 // indirect
	github.com/whyrusleeping/timecache v0.0.0-20160911033111-cfcb2f1abfee // indirect
	gitlab.com/accumulatenetwork/ledger/ledger-go-accumulate v0.0.0-20221027084553-1a2124c6287f // indirect
	go.uber.org/dig v1.15.0 // indirect
	go.uber.org/fx v1.18.2 // indirect
	golang.org/x/exp/typeparams v0.0.0-20220722155223-a9213eeb770e // indirect
	lukechampine.com/blake3 v1.1.7 // indirect
	rsc.io/qr v0.2.0 // indirect
)

require (
	4d63.com/gochecknoglobals v0.1.0 // indirect
	github.com/AndreasBriese/bbloom v0.0.0-20190825152654-46b345b51c96 // indirect
	github.com/Antonboom/errname v0.1.7 // indirect
	github.com/Antonboom/nilnil v0.1.1 // indirect
	github.com/BurntSushi/toml v1.2.0 // indirect
	github.com/DataDog/zstd v1.4.5 // indirect
	github.com/Djarvur/go-err113 v0.0.0-20210108212216-aea10b59be24 // indirect
	github.com/FactomProject/basen v0.0.0-20150613233007-fe3947df716e // indirect
	github.com/FactomProject/btcutilecc v0.0.0-20130527213604-d3a63a5752ec // indirect
	github.com/Masterminds/semver v1.5.0 // indirect
	github.com/OpenPeeDeeP/depguard v1.1.0 // indirect
	github.com/alexkohler/prealloc v1.0.0 // indirect
	github.com/ashanbrown/forbidigo v1.3.0 // indirect
	github.com/ashanbrown/makezero v1.1.1 // indirect
	github.com/beorn7/perks v1.0.1 // indirect
	github.com/bkielbasa/cyclop v1.2.0 // indirect
	github.com/blizzy78/varnamelen v0.8.0 // indirect
	github.com/bombsimon/wsl/v3 v3.3.0 // indirect
	github.com/breml/bidichk v0.2.3 // indirect
	github.com/breml/errchkjson v0.3.0 // indirect
	github.com/btcsuite/btcd v0.22.1
	github.com/butuzov/ireturn v0.1.1 // indirect
	github.com/cespare/xxhash v1.1.0 // indirect
	github.com/cespare/xxhash/v2 v2.2.0 // indirect
	github.com/charithe/durationcheck v0.0.9 // indirect
	github.com/chavacava/garif v0.0.0-20220630083739-93517212f375 // indirect
	github.com/coreos/go-semver v0.3.0 // indirect
	github.com/coreos/go-systemd/v22 v22.5.0 // indirect
	github.com/daixiang0/gci v0.6.3 // indirect
	github.com/denis-tingaikin/go-header v0.4.3 // indirect
	github.com/dgraph-io/badger/v2 v2.2007.2 // indirect
	github.com/dgraph-io/ristretto v0.0.4-0.20210122082011-bb5d392ed82d // indirect
	github.com/dgryski/go-farm v0.0.0-20200201041132-a6ae2369ad13 // indirect
	github.com/dnephin/pflag v1.0.7 // indirect
	github.com/esimonov/ifshort v1.0.4 // indirect
	github.com/ettle/strcase v0.1.1 // indirect
	github.com/fatih/structtag v1.2.0 // indirect
	github.com/fsnotify/fsnotify v1.5.4 // indirect
	github.com/fzipp/gocyclo v0.6.0 // indirect
	github.com/go-critic/go-critic v0.6.4 // indirect
	github.com/go-kit/kit v0.12.0 // indirect
	github.com/go-playground/locales v0.14.0 // indirect
	github.com/go-playground/universal-translator v0.18.0 // indirect
	github.com/go-toolsmith/astcast v1.0.0 // indirect
	github.com/go-toolsmith/astcopy v1.0.1 // indirect
	github.com/go-toolsmith/astequal v1.0.2 // indirect
	github.com/go-toolsmith/astfmt v1.0.0 // indirect
	github.com/go-toolsmith/astp v1.0.0 // indirect
	github.com/go-toolsmith/strparse v1.0.0 // indirect
	github.com/go-toolsmith/typep v1.0.2 // indirect
	github.com/go-xmlfmt/xmlfmt v0.0.0-20220206211657-0a94163c4677 // indirect
	github.com/gobwas/glob v0.2.3 // indirect
	github.com/gofrs/flock v0.8.1 // indirect
	github.com/gogo/protobuf v1.3.2 // indirect
	github.com/golang/protobuf v1.5.2 // indirect
	github.com/golang/snappy v0.0.4 // indirect
	github.com/golangci/check v0.0.0-20180506172741-cfe4005ccda2 // indirect
	github.com/golangci/dupl v0.0.0-20180902072040-3e9179ac440a // indirect
	github.com/golangci/go-misc v0.0.0-20220329215616-d24fe342adfe // indirect
	github.com/golangci/gofmt v0.0.0-20190930125516-244bba706f1a // indirect
	github.com/golangci/lint-1 v0.0.0-20191013205115-297bf364a8e0 // indirect
	github.com/golangci/maligned v0.0.0-20180506175553-b1d89398deca // indirect
	github.com/golangci/misspell v0.3.5 // indirect
	github.com/golangci/revgrep v0.0.0-20220804021717-745bb2f7c2e6 // indirect
	github.com/golangci/unconvert v0.0.0-20180507085042-28b1c447d1f4 // indirect
	github.com/google/btree v1.0.0 // indirect
	github.com/google/go-cmp v0.5.9 // indirect
	github.com/google/orderedcode v0.0.1 // indirect
	github.com/google/shlex v0.0.0-20191202100458-e7afc7fbc510 // indirect
	github.com/gordonklaus/ineffassign v0.0.0-20210914165742-4cc7213b9bc8 // indirect
	github.com/gorilla/websocket v1.5.0
	github.com/gostaticanalysis/analysisutil v0.7.1 // indirect
	github.com/gostaticanalysis/comment v1.4.2 // indirect
	github.com/gostaticanalysis/forcetypeassert v0.1.0 // indirect
	github.com/gostaticanalysis/nilerr v0.1.1 // indirect
	github.com/hashicorp/errwrap v1.1.0 // indirect
	github.com/hashicorp/go-multierror v1.1.1 // indirect
	github.com/hashicorp/go-version v1.6.0 // indirect
	github.com/hashicorp/hcl v1.0.0 // indirect
	github.com/hexops/gotextdiff v1.0.3 // indirect
	github.com/inconshreveable/mousetrap v1.0.0 // indirect
	github.com/jgautheron/goconst v1.5.1 // indirect
	github.com/jingyugao/rowserrcheck v1.1.1 // indirect
	github.com/jirfag/go-printf-func-name v0.0.0-20200119135958-7558a9eaa5af // indirect
	github.com/jmhodges/levigo v1.0.0 // indirect
	github.com/jonboulle/clockwork v0.3.0 // indirect
	github.com/json-iterator/go v1.1.12 // indirect
	github.com/julz/importas v0.1.0 // indirect
	github.com/kisielk/errcheck v1.6.2 // indirect
	github.com/kisielk/gotool v1.0.0 // indirect
	github.com/kulti/thelper v0.6.3 // indirect
	github.com/kunwardeep/paralleltest v1.0.6 // indirect
	github.com/kyoh86/exportloopref v0.1.8 // indirect
	github.com/ldez/gomoddirectives v0.2.3 // indirect
	github.com/ldez/tagliatelle v0.3.1 // indirect
	github.com/leodido/go-urn v1.2.1 // indirect
	github.com/leonklingele/grouper v1.1.0 // indirect
	github.com/lib/pq v1.10.7 // indirect
	github.com/libp2p/go-buffer-pool v0.1.0 // indirect
	github.com/magiconair/properties v1.8.6 // indirect
	github.com/maratori/testpackage v1.1.0 // indirect
	github.com/matoous/godox v0.0.0-20210227103229-6504466cf951 // indirect
	github.com/mattn/go-colorable v0.1.13 // indirect
	github.com/mattn/go-isatty v0.0.16 // indirect
	github.com/mattn/go-runewidth v0.0.9 // indirect
	github.com/matttproud/golang_protobuf_extensions v1.0.4 // indirect
	github.com/mbilski/exhaustivestruct v1.2.0 // indirect
	github.com/mgechev/revive v1.2.3 // indirect
	github.com/minio/highwayhash v1.0.2 // indirect
	github.com/mitchellh/go-homedir v1.1.0 // indirect
	github.com/mitchellh/mapstructure v1.5.0
	github.com/modern-go/concurrent v0.0.0-20180306012644-bacd9c7ef1dd // indirect
	github.com/modern-go/reflect2 v1.0.2 // indirect
	github.com/moricho/tparallel v0.2.1 // indirect
	github.com/nakabonne/nestif v0.3.1 // indirect
	github.com/nbutton23/zxcvbn-go v0.0.0-20210217022336-fa2cb2858354 // indirect
	github.com/nishanths/exhaustive v0.8.1 // indirect
	github.com/nishanths/predeclared v0.2.2 // indirect
	github.com/olekukonko/tablewriter v0.0.5 // indirect
	github.com/petermattis/goid v0.0.0-20180202154549-b0b1615b78e5 // indirect
	github.com/phayes/checkstyle v0.0.0-20170904204023-bfd46e6a821d // indirect
	github.com/pkg/errors v0.9.1 // indirect
	github.com/pmezard/go-difflib v1.0.0 // indirect
	github.com/polyfloyd/go-errorlint v1.0.2 // indirect
	github.com/prometheus/client_model v0.3.0 // indirect
	github.com/prometheus/procfs v0.8.0 // indirect
	github.com/quasilyte/go-ruleguard v0.3.17 // indirect
	github.com/quasilyte/gogrep v0.0.0-20220429205452-5e2753ee08f9 // indirect
	github.com/quasilyte/regex/syntax v0.0.0-20210819130434-b3f0c404a727 // indirect
	github.com/rcrowley/go-metrics v0.0.0-20201227073835-cf1acfcdf475 // indirect
	github.com/rs/cors v1.8.2 // indirect
	github.com/russross/blackfriday/v2 v2.1.0
	github.com/ryancurrah/gomodguard v1.2.4 // indirect
	github.com/ryanrolds/sqlclosecheck v0.3.0 // indirect
	github.com/sanposhiho/wastedassign/v2 v2.0.7 // indirect
	github.com/sasha-s/go-deadlock v0.3.1 // indirect
	github.com/securego/gosec/v2 v2.13.1 // indirect
	github.com/shazow/go-diff v0.0.0-20160112020656-b6b7b6733b8c // indirect
	github.com/sirupsen/logrus v1.9.0 // indirect
	github.com/sivchari/containedctx v1.0.2 // indirect
	github.com/sivchari/tenv v1.7.0 // indirect
	github.com/sonatard/noctx v0.0.1 // indirect
	github.com/sourcegraph/go-diff v0.6.1 // indirect
	github.com/spf13/afero v1.9.2 // indirect
	github.com/spf13/cast v1.5.0 // indirect
	github.com/spf13/jwalterweatherman v1.1.0 // indirect
	github.com/ssgreg/nlreturn/v2 v2.2.1 // indirect
	github.com/stretchr/objx v0.5.0 // indirect
	github.com/subosito/gotenv v1.4.1 // indirect
	github.com/sylvia7788/contextcheck v1.0.6 // indirect
	github.com/syndtr/goleveldb v1.0.1-0.20210819022825-2ae1ddf74ef7 // indirect
	github.com/tdakkota/asciicheck v0.1.1 // indirect
	github.com/tecbot/gorocksdb v0.0.0-20191217155057-f0fad39f321c // indirect
	github.com/tendermint/tm-db v0.6.6 // indirect
	github.com/tetafro/godot v1.4.11 // indirect
	github.com/timakin/bodyclose v0.0.0-20210704033933-f49887972144 // indirect
	github.com/tomarrell/wrapcheck/v2 v2.6.2 // indirect
	github.com/tommy-muehle/go-mnd/v2 v2.5.0 // indirect
	github.com/ultraware/funlen v0.0.3 // indirect
	github.com/ultraware/whitespace v0.0.5 // indirect
	github.com/uudashr/gocognit v1.0.6 // indirect
	github.com/yagipy/maintidx v1.0.0 // indirect
	github.com/yeya24/promlinter v0.2.0 // indirect
	gitlab.com/bosi/decorder v0.2.3 // indirect
	go.etcd.io/bbolt v1.3.6 // indirect
	go.etcd.io/etcd/api/v3 v3.5.4 // indirect
	go.etcd.io/etcd/client/pkg/v3 v3.5.4 // indirect
	go.uber.org/atomic v1.10.0 // indirect
	go.uber.org/multierr v1.8.0 // indirect
	go.uber.org/zap v1.24.0 // indirect
	golang.org/x/crypto v0.3.0
	golang.org/x/mod v0.7.0 // indirect
	golang.org/x/net v0.3.0 // indirect
	google.golang.org/genproto v0.0.0-20220725144611-272f38e5d71b // indirect
	google.golang.org/grpc v1.49.0 // indirect
	google.golang.org/protobuf v1.28.1 // indirect
	gopkg.in/ini.v1 v1.67.0 // indirect
	gopkg.in/yaml.v2 v2.4.0
	honnef.co/go/tools v0.3.3 // indirect
	mvdan.cc/gofumpt v0.3.1 // indirect
	mvdan.cc/interfacer v0.0.0-20180901003855-c20040233aed // indirect
	mvdan.cc/lint v0.0.0-20170908181259-adc824a0674b // indirect
	mvdan.cc/unparam v0.0.0-20220706161116-678bad134442 // indirect
)
